<?xml version="1.0" encoding="UTF-8" standalone="no"?>
<svg
   xmlns:dc="http://purl.org/dc/elements/1.1/"
   xmlns:cc="http://creativecommons.org/ns#"
   xmlns:rdf="http://www.w3.org/1999/02/22-rdf-syntax-ns#"
   xmlns:svg="http://www.w3.org/2000/svg"
   xmlns="http://www.w3.org/2000/svg"
   xmlns:sodipodi="http://sodipodi.sourceforge.net/DTD/sodipodi-0.dtd"
   xmlns:inkscape="http://www.inkscape.org/namespaces/inkscape"
   inkscape:version="0.92.5 (2060ec1f9f, 2020-04-08)"
   sodipodi:docname="logo.svg"
   id="svg5"
   version="1.1"
   width="512"
   viewBox="0 0 60 55"
   height="512">
  <metadata
     id="metadata11">
    <rdf:RDF>
      <cc:Work
         rdf:about="">
        <dc:format>image/svg+xml</dc:format>
        <dc:type
           rdf:resource="http://purl.org/dc/dcmitype/StillImage" />
        <dc:title></dc:title>
      </cc:Work>
    </rdf:RDF>
  </metadata>
  <defs
     id="defs9" />
  <sodipodi:namedview
     inkscape:current-layer="Page-1"
     inkscape:window-maximized="1"
     inkscape:window-y="27"
     inkscape:window-x="72"
     inkscape:cy="256"
     inkscape:cx="255.3948"
     inkscape:zoom="1.6523438"
     showgrid="false"
     id="namedview7"
     inkscape:window-height="1016"
     inkscape:window-width="1848"
     inkscape:pageshadow="2"
     inkscape:pageopacity="0"
     guidetolerance="10"
     gridtolerance="10"
     objecttolerance="10"
     borderopacity="1"
     bordercolor="#666666"
     pagecolor="#ffffff" />
  <g
     fill-rule="evenodd"
     fill="none"
     id="Page-1">
    <g
       style="fill:#0077b6;fill-opacity:1"
       fill-rule="nonzero"
       fill="rgb(0,0,0)"
       id="029---Pet-Health">
      <path
         style="fill:#0077b6;fill-opacity:1"
         d="m44.5 1c-2.1117095.00235057-4.2098296.3378068-6.217.994-1.0701203-1.22169039-2.5996775-1.94391085-4.223-1.994-3.0113285.16336959-5.9902609.70392472-8.867 1.609-.6713244.19637636-1.2935809.53238126-1.826.986-2.4884178-1.0552075-5.1640981-1.59769002-7.867-1.595-8.691 0-15.5 8.4-15.5 19.12 0 11.256 7.278 26.691 27.588 34.106.019.009.039.015.058.022.6666667.244 1.3486667.4773333 2.046.7.0993529.0331844.2032594.0507271.308.052.1049487.0001819.2092562-.0163588.309-.049 1.8881305-.6122298 3.7432824-1.3218471 5.558-2.126.025-.009.051-.005.076-.016s.041-.032.065-.044c17.58-7.865 23.992-22.097 23.992-32.645 0-10.72-6.809-19.12-15.5-19.12zm13.5 19.12c-.1176303 6.0689625-2.0472791 11.9641248-5.541 16.928-2.591-5.752-5.9-10.969-7.692-12.755-1.3044537-1.4498544-2.9648945-2.5339495-4.817-3.145l-.412-2.889c1.7089365-1.1858634 2.6671558-3.1839902 2.522-5.259.0305788-3.27343787-.8275725-6.4938381-2.483-9.318 1.6019484-.45207297 3.2584855-.68155871 4.923-.682 7.57 0 13.5 7.52 13.5 17.12zm-56 0c0-9.6 5.93-17.12 13.5-17.12 2.236619.00392316 4.4531085.42267252 6.537 1.235l-1.951 2.923c-.4143229.62131721-1.0442246 1.0670225-1.768 1.251l-5.807 1.442c-.8588936.2173243-1.4704984.9765297-1.5 1.862-.064 1.7.163 7.375 5.732 9.235.102174.034303.2092215.0518628.317.052 2.949389.0339263 5.8751075.5313322 8.67 1.474l-.244.526c-1.6078346 3.0898276-2.4598228 6.5169724-2.486 10 .0667239 3.8272001 1.4834204 7.5077775 4 10.392v8.465c-18.368-7.228-25-21.373-25-31.737zm11-8.329 2-.5v1.709h-1.968c-.0340179-.4020432-.0447025-.8057202-.032-1.209zm23.156 38.7c-.1048519-.4900418-.1571476-.9898677-.156-1.491-.0521315-2.4835335 1.0677904-4.8467428 3.023-6.379 1.6567991-1.1541931 3.7800313-1.4062355 5.661-.672.3394023.1128959.7132522.0361471.9807241-.201336.2674719-.237483.3879304-.599621.316-.95s-.3253218-.6357681-.6647241-.748664c-2.4920741-.9320098-5.2833511-.5762735-7.462.951-2.4732452 1.9105965-3.901389 4.875088-3.854 8-.0038899.7829213.0970055 1.5628425.3 2.319-1.368.582-2.8 1.13-4.305 1.629-.34-.112-.666-.232-1-.349v-9.599c.0002093-.2645618-.1044287-.5184257-.291-.706-2.3044227-2.5565821-3.6182449-5.8531975-3.704-9.294.0252145-3.1914691.8138449-6.3305613 2.3-9.155l.244-.529c.2294894-.4891242.2475721-1.0511351.05-1.554-.2045596-.5119941-.6106421-.9173534-1.123-1.121-2.970452-1.0438215-6.0907777-1.5980432-9.239-1.641-1.8466721-.6326495-3.2694225-2.1251756-3.813-4h1.581c1.1045695 0 2-.8954305 2-2v-2.2l1.809-.449c1.2049818-.3061856 2.2535946-1.04837402 2.943-2.083l2.337-3.5c.0785063-.11655599.1650498-.22749206.259-.332.3705756-.42819561.8566011-.74064056 1.4-.9 2.6985911-.84530503 5.4895317-1.3610515 8.312-1.536 1.2567393.10358472 2.4046699.7535913 3.14 1.778 1.9248249 2.68418003 2.9282534 5.91971066 2.86 9.222 0 1.914-.682 3.2-2.029 3.812-1.4227316.5432205-3.0012185.5102158-4.4-.092-.381114-.1513089-.631234-.5199486-.631-.93v-6.79c0-.55228475-.4477153-1-1-1s-1 .44771525-1 1v6.79c.0045439 1.2285382.7530983 2.3317959 1.893 2.79 1.4995833.6112872 3.1455704.7691406 4.734.454l.344 2.4c.1126488.7888437.6865411 1.4336355 1.457 1.637 1.5120964.5283904 2.863694 1.4351932 3.926 2.634 1.553 1.544 5.05 6.934 7.737 13.2-4.0063823 4.9727493-9.1206904 8.9391291-14.934 11.582z"
         id="Shape" />
    </g>
    <path
       style="stroke-width:0.60520095"
       d="M 246.19574,487.60092 C 155.03789,456.84101 83.580283,402.87908 41.292662,332.86632 20.27203,298.06387 7.2674196,261.29026 1.8727169,221.39709 0.36685089,210.2614 0.35808486,176.83862 1.8582765,166.3393 7.7891077,124.83146 23.730109,90.864954 48.997705,65.896327 69.936404,45.205378 93.557795,33.652456 121.0466,30.658133 c 19.94281,-2.172348 46.54331,1.462331 68.62136,9.376391 4.29501,1.539582 8.25429,2.934981 8.7984,3.100884 0.55302,0.168623 2.5664,-0.77489 4.56565,-2.139563 5.77252,-3.940286 12.59968,-6.392197 29.54671,-10.611431 21.24936,-5.290362 50.9711,-9.451435 61.20518,-8.568785 11.21648,0.967379 22.80789,6.465647 30.64659,14.536894 l 2.11256,2.175238 6.37232,-1.789314 c 19.41719,-5.452247 41.19026,-7.793944 57.3182,-6.164577 57.71228,5.830533 103.6849,53.648846 117.66257,122.38644 10.79045,53.06392 -1.51281,117.56552 -32.88652,172.41229 -42.33691,74.01238 -114.23232,129.85623 -208.47451,161.92994 -5.28994,1.80033 -10.0559,3.27023 -10.59101,3.26643 -0.53512,-0.004 -4.92188,-1.33943 -9.74836,-2.96805 z m 18.58108,-17.3023 c 4.25984,-1.49954 12.32856,-4.54786 17.9305,-6.77405 9.88063,-3.92652 10.17509,-4.0939 9.84294,-5.59507 -5.96017,-26.93787 0.77201,-54.46645 18.28239,-74.75857 10.17281,-11.78887 20.79287,-18.49232 35.10137,-22.15621 12.51706,-3.20516 30.67613,-2.11259 41.1061,2.47323 3.30506,1.45316 5.0038,4.19659 5.00679,8.08585 0.002,2.62794 -0.25724,3.2054 -2.40194,5.3501 -2.34761,2.34761 -2.48648,2.39764 -5.90071,2.12609 -1.92308,-0.15295 -5.53906,-0.90695 -8.03552,-1.67555 -3.86366,-1.18952 -5.84467,-1.3961 -13.31442,-1.38841 -7.76701,0.008 -9.38793,0.19512 -14.1057,1.62839 -9.16611,2.78467 -16.07612,6.97517 -22.23842,13.48624 -14.00943,14.8023 -20.46686,33.37788 -18.68033,53.73626 0.32202,3.66966 0.7832,6.86618 1.02483,7.10339 0.51142,0.50203 18.90627,-8.61777 29.12386,-14.43904 16.1548,-9.20388 35.85302,-22.98104 51.8072,-36.23454 9.66336,-8.02757 33.071,-31.35093 41.0463,-40.89852 l 5.88842,-7.04928 -4.55134,-10.04704 c -12.50546,-27.60571 -28.11385,-56.07259 -42.81984,-78.09566 -18.28777,-27.38699 -31.03036,-38.92387 -51.86699,-46.95932 -5.63316,-2.17238 -9.13995,-4.9312 -11.07851,-8.71558 -0.84618,-1.65188 -1.81565,-6.21755 -2.94603,-13.87432 -0.92665,-6.27673 -1.81013,-11.53755 -1.96328,-11.69071 -0.15317,-0.15316 -2.36786,0.0122 -4.92155,0.36732 -6.34822,0.88296 -12.22778,0.80493 -19.26398,-0.25564 -6.53132,-0.98447 -15.71487,-3.8279 -19.49385,-6.03573 -3.5742,-2.08819 -8.59945,-7.69318 -10.4637,-11.67086 l -1.63184,-3.48181 -0.17084,-33.42961 c -0.15083,-29.512245 -0.0587,-33.646409 0.78588,-35.279719 2.05343,-3.970893 7.69826,-5.417057 11.6767,-2.991472 3.75223,2.287677 3.74609,2.228979 3.74609,35.783431 0,29.15454 0.0493,30.49274 1.21046,32.89147 1.42024,2.93383 3.79471,4.42248 10.28836,6.45017 3.93947,1.23013 5.77804,1.41733 13.91962,1.41733 8.12734,0 9.98703,-0.18868 13.91962,-1.41226 10.85598,-3.37773 17.81009,-11.2147 20.27476,-22.84876 1.05098,-4.96097 1.21172,-21.06635 0.28654,-28.70993 -2.39498,-19.786682 -9.88416,-40.473163 -20.58927,-56.871332 -8.3036,-12.719505 -18.94191,-19.368111 -30.99057,-19.368111 -8.88408,0 -30.54349,3.025144 -45.67851,6.379863 -10.14099,2.247775 -25.84321,6.734513 -28.73907,8.211871 -4.93032,2.51526 -8.33203,6.633841 -20.49561,24.814769 -9.53185,14.247288 -12.82611,18.687781 -16.06694,21.657411 -5.87762,5.385769 -12.29972,8.407829 -23.99894,11.293229 l -9.51066,2.34563 v 9.16649 c 0,13.34547 -0.98004,17.34224 -5.33565,21.75963 -3.94889,4.0049 -6.47106,4.77003 -16.53208,5.01523 -10.24278,0.24962 -9.68969,-0.38498 -6.25184,7.17316 4.91402,10.80346 13.93253,19.92326 24.89934,25.17896 4.07151,1.95122 4.74399,2.0784 12.98636,2.45584 21.74329,0.9957 44.82362,5.16284 64.76019,11.69243 9.40897,3.08162 12.23196,4.99747 14.89713,10.11012 1.29791,2.48981 1.62473,3.95362 1.6401,7.34583 0.0182,4.02294 -0.19922,4.69384 -4.31531,13.31442 -11.54283,24.17484 -16.66005,42.893 -18.34941,67.11987 -2.09107,29.98779 8.48873,61.69302 28.55194,85.56354 2.31803,2.7579 4.46515,5.88801 4.77139,6.95581 0.3145,1.0966 0.5568,19.89562 0.5568,43.19996 v 41.25853 l 3.4799,1.21306 c 1.91395,0.66718 4.07969,1.23455 4.81275,1.26083 0.73307,0.0263 4.81817,-1.17911 9.07802,-2.67865 z m -34.3163,-42.55565 V 391.5389 l -3.376,-4.19309 c -20.57771,-25.5581 -31.53918,-58.47905 -30.31281,-91.03943 0.9533,-25.31 6.91222,-49.14652 18.32643,-73.30823 2.45782,-5.20275 4.46876,-9.61659 4.46876,-9.80853 0,-0.52057 -10.64435,-3.69903 -20.37051,-6.08273 -14.44856,-3.54109 -34.24916,-6.37338 -44.99119,-6.43558 -7.75004,-0.0448 -12.24521,-0.91262 -18.09107,-3.4923 -17.7887,-7.84987 -30.61585,-22.18046 -37.053993,-41.39704 -2.932852,-8.75398 -4.184959,-16.12357 -4.580348,-26.95875 -0.312454,-8.56251 -0.21869,-10.1948 0.72802,-12.67373 1.378781,-3.61028 5.312571,-7.9231 8.535821,-9.35826 1.37143,-0.61064 14.10597,-3.96598 28.29898,-7.456332 14.20067,-3.492233 27.26543,-7.036762 29.05198,-7.881931 1.78558,-0.844715 4.51063,-2.648571 6.05567,-4.008573 3.24648,-2.857662 21.35345,-29.447469 20.55121,-30.179121 -0.71507,-0.652151 -12.82567,-4.551311 -18.70431,-6.022092 -12.25552,-3.066213 -19.82065,-3.917993 -35.06619,-3.948201 -13.03457,-0.02583 -15.16538,0.114679 -20.76805,1.369456 -8.83867,1.979511 -14.463162,3.936478 -22.874511,7.95888 -34.447684,16.473265 -60.141993,52.783294 -69.510386,98.228904 -8.14467,39.5094 -3.275245,83.80382 14.018809,127.52122 22.488913,56.84942 63.752618,105.88816 120.316178,142.98653 20.79356,13.63788 40.06746,23.82178 66.2695,35.01529 4.49361,1.91967 8.37446,3.50864 8.62411,3.53105 0.24965,0.0224 0.4539,-16.2511 0.4539,-36.16334 z m 222.17795,-97.39966 c 22.37608,-34.50207 35.69558,-71.29587 40.91211,-113.01565 1.49685,-11.97121 1.47761,-39.42673 -0.0347,-49.58263 -3.1148,-20.91672 -7.91308,-36.79741 -16.10482,-53.30153 -17.75389,-35.76919 -46.06237,-59.241124 -79.70564,-66.087797 -7.50753,-1.527842 -30.87397,-1.529083 -40.45526,-0.0021 -8.10694,1.291972 -19.80582,4.030625 -19.52546,4.570819 14.79657,28.509974 19.99783,47.253308 20.85019,75.136148 0.29936,9.79319 0.18387,12.67681 -0.67869,16.94563 -2.40653,11.90995 -8.975,23.00714 -17.5202,29.59971 l -3.19471,2.4647 1.71431,11.95834 c 0.94288,6.57708 1.82152,12.24716 1.95253,12.60017 0.13102,0.353 1.424,0.99072 2.87331,1.41714 4.3544,1.28118 14.38751,6.38122 20.18593,10.26094 13.75662,9.20452 25.12644,21.81339 39.91641,44.26637 13.71337,20.81859 29.54216,49.34212 40.04971,72.16975 1.95338,4.24371 3.68777,7.71352 3.8542,7.71068 0.16643,-0.003 2.3763,-3.20263 4.91082,-7.11064 z M 128.18156,125.03452 c 0,-5.41502 -0.19243,-7.25833 -0.7565,-7.24636 -0.41607,0.009 -4.29692,0.90997 -8.62411,2.00254 l -7.86761,1.98648 -0.18363,3.8795 c -0.3309,6.9913 -0.80515,6.64025 8.97057,6.64025 h 8.46128 z"
       id="path318"
       inkscape:connector-curvature="0"
       transform="matrix(0.1171875,0,0,0.1171875,0,-2.5)" />
    <path
       style="stroke-width:0.60520095;fill:#0077b6;fill-opacity:1"
       d="M 246.19574,487.60092 C 155.03789,456.84101 83.580283,402.87908 41.292662,332.86632 20.27203,298.06387 7.2674196,261.29026 1.8727169,221.39709 0.36685089,210.2614 0.35808486,176.83862 1.8582765,166.3393 7.7891077,124.83146 23.730109,90.864954 48.997705,65.896327 69.936404,45.205378 93.557795,33.652456 121.0466,30.658133 c 19.94281,-2.172348 46.54331,1.462331 68.62136,9.376391 4.29501,1.539582 8.25429,2.934981 8.7984,3.100884 0.55302,0.168623 2.5664,-0.77489 4.56565,-2.139563 5.77252,-3.940286 12.59968,-6.392197 29.54671,-10.611431 21.24936,-5.290362 50.9711,-9.451435 61.20518,-8.568785 11.21648,0.967379 22.80789,6.465647 30.64659,14.536894 l 2.11256,2.175238 6.37232,-1.789314 c 19.41719,-5.452247 41.19026,-7.793944 57.3182,-6.164577 57.71228,5.830533 103.6849,53.648846 117.66257,122.38644 10.79045,53.06392 -1.51281,117.56552 -32.88652,172.41229 -42.33691,74.01238 -114.23232,129.85623 -208.47451,161.92994 -5.28994,1.80033 -10.0559,3.27023 -10.59101,3.26643 -0.53512,-0.004 -4.92188,-1.33943 -9.74836,-2.96805 z m 18.58108,-17.3023 c 4.25984,-1.49954 12.32856,-4.54786 17.9305,-6.77405 9.88063,-3.92652 10.17509,-4.0939 9.84294,-5.59507 -5.96017,-26.93787 0.77201,-54.46645 18.28239,-74.75857 10.17281,-11.78887 20.79287,-18.49232 35.10137,-22.15621 12.51706,-3.20516 30.67613,-2.11259 41.1061,2.47323 3.30506,1.45316 5.0038,4.19659 5.00679,8.08585 0.002,2.62794 -0.25724,3.2054 -2.40194,5.3501 -2.34761,2.34761 -2.48648,2.39764 -5.90071,2.12609 -1.92308,-0.15295 -5.53906,-0.90695 -8.03552,-1.67555 -3.86366,-1.18952 -5.84467,-1.3961 -13.31442,-1.38841 -7.76701,0.008 -9.38793,0.19512 -14.1057,1.62839 -9.16611,2.78467 -16.07612,6.97517 -22.23842,13.48624 -14.00943,14.8023 -20.46686,33.37788 -18.68033,53.73626 0.32202,3.66966 0.7832,6.86618 1.02483,7.10339 0.51142,0.50203 18.90627,-8.61777 29.12386,-14.43904 16.1548,-9.20388 35.85302,-22.98104 51.8072,-36.23454 9.66336,-8.02757 33.071,-31.35093 41.0463,-40.89852 l 5.88842,-7.04928 -4.55134,-10.04704 c -12.50546,-27.60571 -28.11385,-56.07259 -42.81984,-78.09566 -18.28777,-27.38699 -31.03036,-38.92387 -51.86699,-46.95932 -5.63316,-2.17238 -9.13995,-4.9312 -11.07851,-8.71558 -0.84618,-1.65188 -1.81565,-6.21755 -2.94603,-13.87432 -0.92665,-6.27673 -1.81013,-11.53755 -1.96328,-11.69071 -0.15317,-0.15316 -2.36786,0.0122 -4.92155,0.36732 -6.34822,0.88296 -12.22778,0.80493 -19.26398,-0.25564 -6.53132,-0.98447 -15.71487,-3.8279 -19.49385,-6.03573 -3.5742,-2.08819 -8.59945,-7.69318 -10.4637,-11.67086 l -1.63184,-3.48181 -0.17084,-33.42961 c -0.15083,-29.512245 -0.0587,-33.646409 0.78588,-35.279719 2.05343,-3.970893 7.69826,-5.417057 11.6767,-2.991472 3.75223,2.287677 3.74609,2.228979 3.74609,35.783431 0,29.15454 0.0493,30.49274 1.21046,32.89147 1.42024,2.93383 3.79471,4.42248 10.28836,6.45017 3.93947,1.23013 5.77804,1.41733 13.91962,1.41733 8.12734,0 9.98703,-0.18868 13.91962,-1.41226 10.85598,-3.37773 17.81009,-11.2147 20.27476,-22.84876 1.05098,-4.96097 1.21172,-21.06635 0.28654,-28.70993 -2.39498,-19.786682 -9.88416,-40.473163 -20.58927,-56.871332 -8.3036,-12.719505 -18.94191,-19.368111 -30.99057,-19.368111 -8.88408,0 -30.54349,3.025144 -45.67851,6.379863 -10.14099,2.247775 -25.84321,6.734513 -28.73907,8.211871 -4.93032,2.51526 -8.33203,6.633841 -20.49561,24.814769 -9.53185,14.247288 -12.82611,18.687781 -16.06694,21.657411 -5.87762,5.385769 -12.29972,8.407829 -23.99894,11.293229 l -9.51066,2.34563 v 9.16649 c 0,13.34547 -0.98004,17.34224 -5.33565,21.75963 -3.94889,4.0049 -6.47106,4.77003 -16.53208,5.01523 -10.24278,0.24962 -9.68969,-0.38498 -6.25184,7.17316 4.91402,10.80346 13.93253,19.92326 24.89934,25.17896 4.07151,1.95122 4.74399,2.0784 12.98636,2.45584 21.74329,0.9957 44.82362,5.16284 64.76019,11.69243 9.40897,3.08162 12.23196,4.99747 14.89713,10.11012 1.29791,2.48981 1.62473,3.95362 1.6401,7.34583 0.0182,4.02294 -0.19922,4.69384 -4.31531,13.31442 -11.54283,24.17484 -16.66005,42.893 -18.34941,67.11987 -2.09107,29.98779 8.48873,61.69302 28.55194,85.56354 2.31803,2.7579 4.46515,5.88801 4.77139,6.95581 0.3145,1.0966 0.5568,19.89562 0.5568,43.19996 v 41.25853 l 3.4799,1.21306 c 1.91395,0.66718 4.07969,1.23455 4.81275,1.26083 0.73307,0.0263 4.81817,-1.17911 9.07802,-2.67865 z m -34.3163,-42.55565 V 391.5389 l -3.376,-4.19309 c -20.57771,-25.5581 -31.53918,-58.47905 -30.31281,-91.03943 0.9533,-25.31 6.91222,-49.14652 18.32643,-73.30823 2.45782,-5.20275 4.46876,-9.61659 4.46876,-9.80853 0,-0.52057 -10.64435,-3.69903 -20.37051,-6.08273 -14.44856,-3.54109 -34.24916,-6.37338 -44.99119,-6.43558 -7.75004,-0.0448 -12.24521,-0.91262 -18.09107,-3.4923 -17.7887,-7.84987 -30.61585,-22.18046 -37.053993,-41.39704 -2.932852,-8.75398 -4.184959,-16.12357 -4.580348,-26.95875 -0.312454,-8.56251 -0.21869,-10.1948 0.72802,-12.67373 1.378781,-3.61028 5.312571,-7.9231 8.535821,-9.35826 1.37143,-0.61064 14.10597,-3.96598 28.29898,-7.456332 14.20067,-3.492233 27.26543,-7.036762 29.05198,-7.881931 1.78558,-0.844715 4.51063,-2.648571 6.05567,-4.008573 3.24648,-2.857662 21.35345,-29.447469 20.55121,-30.179121 -0.71507,-0.652151 -12.82567,-4.551311 -18.70431,-6.022092 -12.25552,-3.066213 -19.82065,-3.917993 -35.06619,-3.948201 -13.03457,-0.02583 -15.16538,0.114679 -20.76805,1.369456 -8.83867,1.979511 -14.463162,3.936478 -22.874511,7.95888 -34.447684,16.473265 -60.141993,52.783294 -69.510386,98.228904 -8.14467,39.5094 -3.275245,83.80382 14.018809,127.52122 22.488913,56.84942 63.752618,105.88816 120.316178,142.98653 20.79356,13.63788 40.06746,23.82178 66.2695,35.01529 4.49361,1.91967 8.37446,3.50864 8.62411,3.53105 0.24965,0.0224 0.4539,-16.2511 0.4539,-36.16334 z m 222.17795,-97.39966 c 22.37608,-34.50207 35.69558,-71.29587 40.91211,-113.01565 1.49685,-11.97121 1.47761,-39.42673 -0.0347,-49.58263 -3.1148,-20.91672 -7.91308,-36.79741 -16.10482,-53.30153 -17.75389,-35.76919 -46.06237,-59.241124 -79.70564,-66.087797 -7.50753,-1.527842 -30.87397,-1.529083 -40.45526,-0.0021 -8.10694,1.291972 -19.80582,4.030625 -19.52546,4.570819 14.79657,28.509974 19.99783,47.253308 20.85019,75.136148 0.29936,9.79319 0.18387,12.67681 -0.67869,16.94563 -2.40653,11.90995 -8.975,23.00714 -17.5202,29.59971 l -3.19471,2.4647 1.71431,11.95834 c 0.94288,6.57708 1.82152,12.24716 1.95253,12.60017 0.13102,0.353 1.424,0.99072 2.87331,1.41714 4.3544,1.28118 14.38751,6.38122 20.18593,10.26094 13.75662,9.20452 25.12644,21.81339 39.91641,44.26637 13.71337,20.81859 29.54216,49.34212 40.04971,72.16975 1.95338,4.24371 3.68777,7.71352 3.8542,7.71068 0.16643,-0.003 2.3763,-3.20263 4.91082,-7.11064 z M 128.18156,125.03452 c 0,-5.41502 -0.19243,-7.25833 -0.7565,-7.24636 -0.41607,0.009 -4.29692,0.90997 -8.62411,2.00254 l -7.86761,1.98648 -0.18363,3.8795 c -0.3309,6.9913 -0.80515,6.64025 8.97057,6.64025 h 8.46128 z"
       id="path320"
       inkscape:connector-curvature="0"
       transform="matrix(0.1171875,0,0,0.1171875,0,-2.5)" />
  </g>
</svg>
